Prénom,Nom,Adresse de courriel,Nombres complexe_math SIG,Dérivation_math TH SIG,Intégration_math SIG,Thermochimie_chimie TH,Structure de la matière_chimie TH,molecule_bio TH,plante_bio SIG,html_info WEB SOFT OPS,css_info WEB SOFT OPS,game design_info GAME,nginx_info OPS,cpp_info SOFT GAME,algo_info OPS GAME WEB SOFT,Total du cours,Tuteur
john,attend,john.attend@mail.fr,20,15,50,75,96,61,71,30,94,89,77,86,42,62,referant1@mon-univ.fr
sarah,croche,sarah.croche@mail.fr,44,91,91,99,34,99,8,42,6,98,86,18,51,59,referant1@mon-univ.fr
sarah,pelle,sarah.pelle@mail.fr,26,51,67,58,75,5,77,14,85,54,18,75,84,53,referant1@mon-univ.fr
aria,stark,aria.stark@mail.fr,13,71,14,81,27,46,7,5,64,9,1,90,12,34,referant1@mon-univ.fr
jesse,custer,jesse.custer@mail.fr,45,27,7,86,56,41,13,3,70,70,10,87,86,46,referant1@mon-univ.fr
tulip,hoara,tulip.hoara@mail.fr,96,22,98,77,72,48,64,2,40,43,47,33,43,53,referant1@mon-univ.fr
tyrion,lanister,tyrion.lanister@mail.fr,53,68,0,10,87,92,89,40,98,39,31,80,22,55,referant2@mon-univ.fr
lord,vaaris,lord.vaaris@mail.fr,78,76,95,7,28,93,23,80,28,59,0,75,86,56,referant2@mon-univ.fr
jack,peralta,jack.peralta@mail.fr,87,19,43,51,98,85,92,68,27,64,74,88,56,66,referant2@mon-univ.fr
abbed,troy,abbed.troy@mail.fr,37,0,94,16,58,26,25,74,44,70,56,59,82,49,referant2@mon-univ.fr
